Data Cleaning and Wrangling
…
Tidying gene expression data

# Transposing and tidying the gene expression data
tidy_genes <- ncbi_genes_dirty |> 
  pivot_longer(cols = -col_1,                  # everything but col1
               names_to = "Sample",
               values_to = "Expression") |> 
  pivot_wider(names_from = col_1,             # col1 contains the genes
              values_from = Expression) |>    # all expression values
  mutate(Sample_ID = sample_ids[seq_len(n())]) |>   # adding the sample_IDs in a new column
  relocate(Sample_ID)  # moving Sample_ID to the first column
tidy_genes

# A tibble: 76 × 11,157
   Sample_ID Sample ILMN_1343291 ILMN_1343292 ILMN_1343293 ILMN_1343294
   <chr>     <chr>  <chr>        <chr>        <chr>        <chr>       
 1 GSM451162 col_2  149.38       149.38       259.05       69.95       
 2 GSM451163 col_3  161.57       161.57       329.22       96.98       
 3 GSM451164 col_4  155.86       155.86       301.73       81.77       
 4 GSM451165 col_5  155.13       155.13       247.79       67.75       
 5 GSM451166 col_6  130.20       130.20       270.24       77.58       
 6 GSM451167 col_7  153.16       153.16       256.82       69.91       
 7 GSM451168 col_8  170.44       170.44       253.69       70.34       
 8 GSM451169 col_9  205.75       205.75       265.28       69.59       
 9 GSM451170 col_10 145.86       145.86       273.89       73.38       
10 GSM451171 col_11 153.64       153.64       296.67       73.37       
# ℹ 66 more rows
# ℹ 11,151 more variables: ILMN_1651228 <chr>, ILMN_1651229 <chr>,
#   ILMN_1651237 <chr>, ILMN_1651254 <chr>, ILMN_1651261 <chr>,
#   ILMN_1651262 <chr>, ILMN_1651268 <chr>, ILMN_1651278 <chr>,
#   ILMN_1651282 <chr>, ILMN_1651286 <chr>, ILMN_1651296 <chr>,
#   ILMN_1651336 <chr>, ILMN_1651346 <chr>, ILMN_1651354 <chr>,
#   ILMN_1651358 <chr>, ILMN_1651364 <chr>, ILMN_1651375 <chr>, …
…
