07_analysis 3
…
#Transforming the data to a long format to prepare it for analysis
placental_gene_expr_clean_aug_long <- placental_gene_expr_clean_aug |> 
  select(status_num, starts_with("ilmn")) |>                      #Selecting relevant columns
  pivot_longer(cols = starts_with("ilmn"),                        #Specifying which columns to be pivot
               names_to = "gene",                                 #Making a new column to store the gene names
               values_to = "expr_level"                           #Making a new column to store the corresponding expression levels in
               ) |> 
  mutate(log2_expr = log2(expr_level))                            #

placental_gene_expr_clean_aug_long <- placental_gene_expr_clean_aug_long |> 
  select(status_num,gene,log2_expr)

print(placental_gene_expr_clean_aug_long)

# A tibble: 825,470 × 3
   status_num gene                  log2_expr
        <dbl> <chr>                     <dbl>
 1          0 ilmn_1698220_phtf2         9.91
 2          0 ilmn_1784717_rps19         8.19
 3          0 ilmn_1761911_scyl1bp1      7.36
 4          0 ilmn_1706784_h2afv         8.19
 5          0 ilmn_1815346_tmem136       7.46
 6          0 ilmn_1764927_cdc42ep1      6.15
 7          0 ilmn_1776347_tcp1         11.7 
 8          0 ilmn_1660661_tcp1          7.96
 9          0 ilmn_1692844_tbc1d19      10.6 
10          0 ilmn_1769158_isoc2         7.22
# ℹ 825,460 more rows

Creating a table with gene names and a data column containing status and log2 expression level for each gene

placental_gene_expr_clean_aug_long_nested <- placental_gene_expr_clean_aug_long |> 
  group_by(gene) |> 
  nest() |>  
  ungroup()

placental_gene_expr_clean_aug_long_nested

# A tibble: 11,155 × 2
   gene                  data             
   <chr>                 <list>           
 1 ilmn_1698220_phtf2    <tibble [74 × 2]>
 2 ilmn_1784717_rps19    <tibble [74 × 2]>
 3 ilmn_1761911_scyl1bp1 <tibble [74 × 2]>
 4 ilmn_1706784_h2afv    <tibble [74 × 2]>
 5 ilmn_1815346_tmem136  <tibble [74 × 2]>
 6 ilmn_1764927_cdc42ep1 <tibble [74 × 2]>
 7 ilmn_1776347_tcp1     <tibble [74 × 2]>
 8 ilmn_1660661_tcp1     <tibble [74 × 2]>
 9 ilmn_1692844_tbc1d19  <tibble [74 × 2]>
10 ilmn_1769158_isoc2    <tibble [74 × 2]>
# ℹ 11,145 more rows
…
list()

Creating a column with a model_object column

placental_gene_expr_clean_aug_long_nested <- placental_gene_expr_clean_aug_long_nested |> 
  group_by(gene) |> 
  mutate(model_object = map(.x = data,
                   .f = ~lm(formula = log2_expr ~ status_num,
                            data = .x)))
placental_gene_expr_clean_aug_long_nested

# A tibble: 11,155 × 3
# Groups:   gene [11,155]
   gene                  data              model_object
   <chr>                 <list>            <list>      
 1 ilmn_1698220_phtf2    <tibble [74 × 2]> <lm>        
 2 ilmn_1784717_rps19    <tibble [74 × 2]> <lm>        
 3 ilmn_1761911_scyl1bp1 <tibble [74 × 2]> <lm>        
 4 ilmn_1706784_h2afv    <tibble [74 × 2]> <lm>        
 5 ilmn_1815346_tmem136  <tibble [74 × 2]> <lm>        
 6 ilmn_1764927_cdc42ep1 <tibble [74 × 2]> <lm>        
 7 ilmn_1776347_tcp1     <tibble [74 × 2]> <lm>        
 8 ilmn_1660661_tcp1     <tibble [74 × 2]> <lm>        
 9 ilmn_1692844_tbc1d19  <tibble [74 × 2]> <lm>        
10 ilmn_1769158_isoc2    <tibble [74 × 2]> <lm>        
# ℹ 11,145 more rows
…
# A tibble: 0 × 0

Creating a column with model_object_tidy

placental_gene_expr_clean_aug_long_nested <- placental_gene_expr_clean_aug_long_nested |> 
  mutate(model_object_tidy = map(.x = model_object, #specifies that the function will be applied to the model_object column
                                 .f = ~tidy(x = .x, # The x argument refers to the current model object being processed from the model_object column
                                            conf.int = TRUE, #include confidence intervals 
                                            conf.level = 0.95)))
placental_gene_expr_clean_aug_long_nested

# A tibble: 11,155 × 4
# Groups:   gene [11,155]
   gene                  data              model_object model_object_tidy
   <chr>                 <list>            <list>       <list>           
 1 ilmn_1698220_phtf2    <tibble [74 × 2]> <lm>         <tibble [2 × 7]> 
 2 ilmn_1784717_rps19    <tibble [74 × 2]> <lm>         <tibble [2 × 7]> 
 3 ilmn_1761911_scyl1bp1 <tibble [74 × 2]> <lm>         <tibble [2 × 7]> 
 4 ilmn_1706784_h2afv    <tibble [74 × 2]> <lm>         <tibble [2 × 7]> 
 5 ilmn_1815346_tmem136  <tibble [74 × 2]> <lm>         <tibble [2 × 7]> 
 6 ilmn_1764927_cdc42ep1 <tibble [74 × 2]> <lm>         <tibble [2 × 7]> 
 7 ilmn_1776347_tcp1     <tibble [74 × 2]> <lm>         <tibble [2 × 7]> 
 8 ilmn_1660661_tcp1     <tibble [74 × 2]> <lm>         <tibble [2 × 7]> 
 9 ilmn_1692844_tbc1d19  <tibble [74 × 2]> <lm>         <tibble [2 × 7]> 
10 ilmn_1769158_isoc2    <tibble [74 × 2]> <lm>         <tibble [2 × 7]> 
# ℹ 11,145 more rows

Unnest the model_object_tidy column

placental_gene_expr_estimates <- placental_gene_expr_clean_aug_long_nested |> 
  unnest(model_object_tidy)

placental_gene_expr_estimates

# A tibble: 22,310 × 10
# Groups:   gene [11,155]
   gene       data     model_object term  estimate std.error statistic   p.value
   <chr>      <list>   <list>       <chr>    <dbl>     <dbl>     <dbl>     <dbl>
 1 ilmn_1698… <tibble> <lm>         (Int…   9.82      0.0267   368.    1.27e-119
 2 ilmn_1698… <tibble> <lm>         stat…   0.0599    0.0663     0.903 3.69e-  1
 3 ilmn_1784… <tibble> <lm>         (Int…   8.01      0.0306   261.    5.99e-109
 4 ilmn_1784… <tibble> <lm>         stat…   0.0362    0.0761     0.476 6.35e-  1
 5 ilmn_1761… <tibble> <lm>         (Int…   7.31      0.0270   270.    5.32e-110
 6 ilmn_1761… <tibble> <lm>         stat…  -0.0610    0.0672    -0.909 3.67e-  1
 7 ilmn_1706… <tibble> <lm>         (Int…   8.01      0.0306   261.    5.95e-109
 8 ilmn_1706… <tibble> <lm>         stat…   0.0362    0.0761     0.476 6.36e-  1
 9 ilmn_1815… <tibble> <lm>         (Int…   7.03      0.0616   114.    4.12e- 83
10 ilmn_1815… <tibble> <lm>         stat…   0.290     0.153      1.90  6.20e-  2
# ℹ 22,300 more rows
# ℹ 2 more variables: conf.low <dbl>, conf.high <dbl>

Filter, Select, and Convert Data Types for Gene Expression Estimates

placental_gene_expr_estimates <- placental_gene_expr_estimates |> 
  filter(term == "status_num") |> 
  select(gene, p.value, estimate, conf.low, conf.high) |> 
  ungroup()

cols_to_convert <- c("p.value", "estimate", "conf.low", "conf.high")
placental_gene_expr_estimates[cols_to_convert] <- lapply(placental_gene_expr_estimates[cols_to_convert],
                                            function(x) as.numeric(as.character(x)))

placental_gene_expr_estimates

# A tibble: 11,155 × 5
   gene                  p.value estimate conf.low conf.high
   <chr>                   <dbl>    <dbl>    <dbl>     <dbl>
 1 ilmn_1698220_phtf2     0.369    0.0599  -0.0723    0.192 
 2 ilmn_1784717_rps19     0.635    0.0362  -0.115     0.188 
 3 ilmn_1761911_scyl1bp1  0.367   -0.0610  -0.195     0.0729
 4 ilmn_1706784_h2afv     0.636    0.0362  -0.115     0.188 
 5 ilmn_1815346_tmem136   0.0620   0.290   -0.0149    0.595 
 6 ilmn_1764927_cdc42ep1  0.798   -0.0129  -0.113     0.0870
 7 ilmn_1776347_tcp1      0.316   -0.0672  -0.200     0.0654
 8 ilmn_1660661_tcp1      0.122    0.353   -0.0964    0.802 
 9 ilmn_1692844_tbc1d19   0.712   -0.0338  -0.216     0.148 
10 ilmn_1769158_isoc2     0.423   -0.0482  -0.167     0.0710
# ℹ 11,145 more rows

Finding q-value and determining if the results are significant

placental_gene_expr_estimates <- placental_gene_expr_estimates |> 
  mutate(q.value = p.adjust(p.value),
         is_significant = case_when(q.value <= 0.05 ~ "yes",
                                    q.value > 0.05 ~ "no"))

placental_gene_expr_estimates

# A tibble: 11,155 × 7
   gene               p.value estimate conf.low conf.high q.value is_significant
   <chr>                <dbl>    <dbl>    <dbl>     <dbl>   <dbl> <chr>         
 1 ilmn_1698220_phtf2  0.369    0.0599  -0.0723    0.192        1 no            
 2 ilmn_1784717_rps19  0.635    0.0362  -0.115     0.188        1 no            
 3 ilmn_1761911_scyl…  0.367   -0.0610  -0.195     0.0729       1 no            
 4 ilmn_1706784_h2afv  0.636    0.0362  -0.115     0.188        1 no            
 5 ilmn_1815346_tmem…  0.0620   0.290   -0.0149    0.595        1 no            
 6 ilmn_1764927_cdc4…  0.798   -0.0129  -0.113     0.0870       1 no            
 7 ilmn_1776347_tcp1   0.316   -0.0672  -0.200     0.0654       1 no            
 8 ilmn_1660661_tcp1   0.122    0.353   -0.0964    0.802        1 no            
 9 ilmn_1692844_tbc1…  0.712   -0.0338  -0.216     0.148        1 no            
10 ilmn_1769158_isoc2  0.423   -0.0482  -0.167     0.0710       1 no            
# ℹ 11,145 more rows
…
Saving 7 x 5 in image

Since no significant q-values were found, we decided to look at significant p-values instead.

Significant p-values

# Changed from looking at significant q-value in 07_analysis to looking at significant p-values
placental_gene_expr_estimates_p <- placental_gene_expr_estimates |> 
  mutate(q.value = p.adjust(p.value),
         is_significant = case_when(p.value <= 0.05 ~ "yes", # obs p-value
                                    p.value > 0.05 ~ "no"))

placental_gene_expr_estimates_p

# A tibble: 11,155 × 7
   gene               p.value estimate conf.low conf.high q.value is_significant
   <chr>                <dbl>    <dbl>    <dbl>     <dbl>   <dbl> <chr>         
 1 ilmn_1698220_phtf2  0.369    0.0599  -0.0723    0.192        1 no            
 2 ilmn_1784717_rps19  0.635    0.0362  -0.115     0.188        1 no            
 3 ilmn_1761911_scyl…  0.367   -0.0610  -0.195     0.0729       1 no            
 4 ilmn_1706784_h2afv  0.636    0.0362  -0.115     0.188        1 no            
 5 ilmn_1815346_tmem…  0.0620   0.290   -0.0149    0.595        1 no            
 6 ilmn_1764927_cdc4…  0.798   -0.0129  -0.113     0.0870       1 no            
 7 ilmn_1776347_tcp1   0.316   -0.0672  -0.200     0.0654       1 no            
 8 ilmn_1660661_tcp1   0.122    0.353   -0.0964    0.802        1 no            
 9 ilmn_1692844_tbc1…  0.712   -0.0338  -0.216     0.148        1 no            
10 ilmn_1769158_isoc2  0.423   -0.0482  -0.167     0.0710       1 no            
# ℹ 11,145 more rows

Sorting for genes with a significant p-value (p<0.05)

placental_gene_expr_estimates_p |>
  filter(is_significant == "yes") |> 
  select(gene, p.value, q.value)

# A tibble: 1,287 × 3
   gene                  p.value q.value
   <chr>                   <dbl>   <dbl>
 1 ilmn_1685369_slu7     0.00899       1
 2 ilmn_1770803_bnip2    0.0371        1
 3 ilmn_1671427_fbxw4    0.00899       1
 4 ilmn_1750563_ceecam1  0.00899       1
 5 ilmn_1762888_fam119a  0.00899       1
 6 ilmn_1682864_spsb3    0.0482        1
 7 ilmn_1660806_csrp2    0.0474        1
 8 ilmn_1762561_pla2g10  0.0476        1
 9 ilmn_1748916_c18orf55 0.0372        1
10 ilmn_1697519_arnt     0.0482        1
# ℹ 1,277 more rows
…
It is clear that all significant genes are divided into 3 clusters:

a ≈ 0.22

a ≈ 0.15

a ≈ -0.11

This can also be concluded when looking at the numeric values for estimates for all significant genes:

placental_gene_expr_estimates_p |> 
  filter(is_significant == "yes")

# A tibble: 1,287 × 7
   gene               p.value estimate conf.low conf.high q.value is_significant
   <chr>                <dbl>    <dbl>    <dbl>     <dbl>   <dbl> <chr>         
 1 ilmn_1685369_slu7  0.00899    0.152   0.0391  0.265          1 yes           
 2 ilmn_1770803_bnip2 0.0371     0.226   0.0139  0.437          1 yes           
 3 ilmn_1671427_fbxw4 0.00899    0.152   0.0391  0.265          1 yes           
 4 ilmn_1750563_ceec… 0.00899    0.152   0.0391  0.265          1 yes           
 5 ilmn_1762888_fam1… 0.00899    0.152   0.0391  0.265          1 yes           
 6 ilmn_1682864_spsb3 0.0482    -0.114  -0.228  -0.000926       1 yes           
 7 ilmn_1660806_csrp2 0.0474    -0.115  -0.228  -0.00133        1 yes           
 8 ilmn_1762561_pla2… 0.0476    -0.115  -0.228  -0.00123        1 yes           
 9 ilmn_1748916_c18o… 0.0372     0.225   0.0138  0.437          1 yes           
10 ilmn_1697519_arnt  0.0482    -0.114  -0.228  -0.000918       1 yes           
# ℹ 1,277 more rows
…
